{
  "version": 2,
  "defaultNote": "Index",
  "useMoment": false,
  "momentFormat": "YYYY-MM-DD",
  "workspace": "Home",
  "workspaceEnabled": false,
  "openOnStartup": true,
  "hasRibbonIcon": true,
  "openMode": "Replace all open notes",
  "manualOpenMode": "Keep open notes",
  "view": "Reading view",
  "revertView": true,
  "refreshDataview": false,
  "autoCreate": true,
  "autoScroll": false,
  "pin": false
}