{
  "tutorialIndex": -1,
  "currencySymbol": "$",
  "ledgerFile": "transactions.ledger",
  "assetAccountsPrefix": "asset",
  "expenseAccountsPrefix": "pengeluaran",
  "incomeAccountsPrefix": "pemasukan",
  "liabilityAccountsPrefix": "kerugian"
}